   OCLC XREF REPORT
             
   OCLC        Submitted
   Control #   001 Field
  882256989    626000                                                           
  874798811    626001                                                           
  884281434    626002                                                           
  884281620    626003                                                           
  884281621    626004                                                           
  884281622    626005                                                           
  882292936    626006                                                           
  874806048    626007                                                           
  884281623    626008                                                           
  884281624    626011                                                           
  882277345    626012                                                           
  874808247    626013                                                           
  884281639    626014                                                           
  874812036    626015                                                           
  884281640    626016                                                           
  884281435    626018                                                           
  874817425    626019                                                           
  884281660    626021                                                           
  884281661    626022                                                           
  884281662    626024                                                           
  874819913    626026                                                           
  884281664    626027                                                           
  884281598    626028                                                           
  860738006    626029                                                           
  683174337    626030                                                           
  683174212    626032                                                           
  884281599    626033                                                           
  884281600    626036                                                           
  884281601    626038                                                           
  874873150    626040                                                           
  884281603    626041                                                           
  882226952    626044                                                           
  884281567    626046                                                           
  884281568    626047                                                           
  683159242    626048                                                           
  884281688    626052                                                           
  884281689    626053                                                           
  884281691    626054                                                           
  884281692    626055                                                           
  874876709    626057                                                           
  884281695    626058                                                           
  683174524    626059                                                           
  884281696    626064                                                           
  884281694    626065                                                           
  683174151    626067                                                           
  874884702    626068                                                           
  884281675    626070                                                           
  884281676    626071                                                           
  858408695    626073                                                           
  874886784    626075                                                           
  884281704    626076                                                           
  874892118    626078                                                           
  884281677    626082                                                           
  860800363    626084                                                           
  874943902    626088                                                           
  884281666    626089                                                           
  860742295    626091                                                           
  879485943    626092                                                           
  884281716    626096                                                           
  884281717    626101                                                           
  874955656    626103                                                           
  884281679    626104                                                           
  860743898    626106                                                           
  884281718    626107                                                           
  884281719    626108                                                           
  874956466    626109                                                           
  884281720    626110                                                           
  683069521    626112                                                           
  884281697    626113                                                           
  860743207    626116                                                           
  874957105    626117                                                           
  874957299    626120                                                           
  884281698    626121                                                           
  884281699    626122                                                           
  884281700    626124                                                           
  874957784    626126                                                           
  884281701    626128                                                           
  884281673    626129                                                           
  874963752    626131                                                           
  884281765    626132                                                           
  884281766    626134                                                           
  860740649    626135                                                           
  884281767    626136                                                           
  874965592    626139                                                           
  860741365    626140                                                           
  884281768    626142                                                           
  884281769    626144                                                           
  879490082    626145                                                           
  874968293    626147                                                           
  860739549    626149                                                           
  683087066    626151                                                           
  874973368    626152                                                           
  884281742    626153                                                           
  874972273    626154                                                           
  884281743    626156                                                           
  884281779    626158                                                           
  884281780    626161                                                           
  884281782    626167                                                           
  875615642    626168                                                           
  884281783    626169                                                           
  875617261    626170                                                           
  875238074    626171                                                           
  884281784    626172                                                           
  884281785    626173                                                           
  875222423    626174                                                           
  860743425    626175                                                           
  875617025    626176                                                           
  875616610    626177                                                           
  879488015    626178                                                           
  875618789    626179                                                           
  884281734    626180                                                           
  875618825    626182                                                           
  875623241    626183                                                           
  884281787    626184                                                           
  884281790    626185                                                           
  860741055    626186                                                           
  875621918    626187                                                           
  683084311    626188                                                           
  882252045    626190                                                           
  882283267    626191                                                           
  875625786    626192                                                           
  860742354    626193                                                           
  875625883    626195                                                           
  884281735    626196                                                           
  860741404    626197                                                           
  884281736    626199                                                           
  875628367    626200                                                           
  860741362    626202                                                           
  884281764    626204                                                           
  884281807    626205                                                           
  884281644    626206                                                           
  884281808    626207                                                           
  879489575    626208                                                           
  875632385    626209                                                           
  875631837    626210                                                           
  884281809    626211                                                           
  875636493    626212                                                           
  875626376    626213                                                           
  860801789    626214                                                           
  884281810    626215                                                           
  875636493    626218                                                           
  884281821    626220                                                           
  875641996    626222                                                           
  875647763    626223                                                           
  875648014    626224                                                           
  884281822    626225                                                           
  884281823    626226                                                           
  884281705    626227                                                           
  884281706    626228                                                           
  884281707    626229                                                           
  884281708    626230                                                           
  884281827    626231                                                           
  884281837    626233                                                           
  882295638    626237                                                           
  884281842    626238                                                           
  876013813    626239                                                           
  683152136    626240                                                           
  876014081    626241                                                           
  884281839    626242                                                           
  884281841    626243                                                           
  884281849    626244                                                           
  876086128    626245                                                           
  875501872    626246                                                           
  875499641    626247                                                           
  882296124    626248                                                           
  876086777    626249                                                           
  884281850    626251                                                           
  876087298    626252                                                           
  876088202    626254                                                           
  884281748    626255                                                           
  884281749    626257                                                           
  875495701    626259                                                           
  884281750    626260                                                           
  876095096    626261                                                           
  683089062    626263                                                           
  875493778    626264                                                           
  884281851    626265                                                           
  882294763    626267                                                           
  884281878    626269                                                           
  884281853    626271                                                           
  884281872    626273                                                           
  875516913    626274                                                           
  884281874    626276                                                           
  875518293    626279                                                           
  882271123    626280                                                           
  879489190    626281                                                           
  875519624    626283                                                           
  884281875    626284                                                           
  884281876    626285                                                           
  876105661    626287                                                           
  884281919    626288                                                           
  875515602    626290                                                           
  884281920    626291                                                           
  875512778    626293                                                           
  875520437    626295                                                           
  876110727    626296                                                           
  884281934    626297                                                           
  884281936    626298                                                           
  884281937    626302                                                           
  884281939    626304                                                           
  884281947    626306                                                           
  884281948    626307                                                           
  884281950    626308                                                           
  860100661    626313                                                           
  884281951    626315                                                           
  860741291    626317                                                           
  884281928    626319                                                           
  876222806    626320                                                           
  884281917    626321                                                           
  860799520    626323                                                           
  876222991    626324                                                           
  884281961    626327                                                           
  884281962    626328                                                           
  884281963    626329                                                           
  860729732    626334                                                           
  884281968    626346                                                           
  884281969    626348                                                           
  860801760    626353                                                           
  860801431    626356                                                           
  884281970    626358                                                           
  882261085    626360                                                           
  884281971    626362                                                           
  884281973    626363                                                           
  884281974    626364                                                           
  860131696    626368                                                           
  884281982    626370                                                           
  884281908    626373                                                           
  742503289    626375                                                           
  884281909    626379                                                           
  884281910    626381                                                           
  884281911    626385                                                           
  884281964    626386                                                           
  884281965    626388                                                           
  884282003    626392                                                           
  884282004    626395                                                           
  669408226    626397                                                           
  884281966    626398                                                           
  884281967    626401                                                           
  858425818    626403                                                           
  884281983    626406                                                           
  860741126    626409                                                           
  882423769    626410                                                           
  884282025    626411                                                           
  876872523    626412                                                           
  884282026    626413                                                           
  858428471    626415                                                           
  876873849    626417                                                           
  884281987    626420                                                           
  884282038    626422                                                           
  876874703    626424                                                           
  884282039    626426                                                           
  876875285    626429                                                           
  876875809    626430                                                           
  884282041    626431                                                           
  876884147    626433                                                           
  876876305    626434                                                           
  884282033    626435                                                           
  860741858    626436                                                           
  884282035    626437                                                           
  884282036    626438                                                           
  879485990    626439                                                           
  860741676    626441                                                           
  884282037    626443                                                           
  860744679    626444                                                           
  815153730    626445                                                           
  860741956    626447                                                           
  884282080    626448                                                           
  876880277    626449                                                           
  876884566    626450                                                           
  884282061    626452                                                           
  860742402    626453                                                           
  884282062    626454                                                           
  884282063    626455                                                           
  876884894    626456                                                           
  876882925    626457                                                           
  884282064    626459                                                           
  876884081    626460                                                           
  876883890    626461                                                           
  884282065    626462                                                           
  876884184    626464                                                           
  876885031    626466                                                           
  884282087    626467                                                           
  877035328    626470                                                           
  884282088    626472                                                           
  877017686    626473                                                           
  877037425    626475                                                           
  877810235    626477                                                           
  877018031    626479                                                           
  877810304    626481                                                           
  876230772    626484                                                           
  884282002    626487                                                           
  884282101    626488                                                           
  876230220    626490                                                           
  877810335    626491                                                           
  879489642    626493                                                           
  876232577    626495                                                           
  884282102    626497                                                           
  884282103    626498                                                           
  877810336    626500                                                           
  877810355    626504                                                           
  884282069    626505                                                           
  877810310    626507                                                           
  884282058    626508                                                           
  884282115    626510                                                           
  876229355    626511                                                           
  877810391    626514                                                           
  876234777    626516                                                           
  884282116    626521                                                           
  876229987    626522                                                           
  860744514    626523                                                           
  877810191    626525                                                           
  877030492    626527                                                           
  884282117    626529                                                           
  877810392    626530                                                           
  884282070    626531                                                           
  884282071    626535                                                           
  877810401    626538                                                           
  884282118    626539                                                           
  877810454    626541                                                           
  884282029    626542                                                           
  884282030    626545                                                           
  877038496    626547                                                           
  884282130    626549                                                           
  884282120    626553                                                           
  882290561    626558                                                           
  884282131    626560                                                           
  877810503    626563                                                           
  877810387    626564                                                           
  884282132    626565                                                           
  884282133    626569                                                           
  877817575    626570                                                           
  877817645    626572                                                           
  877811318    626576                                                           
  882277089    626578                                                           
  884282152    626579                                                           
  884282153    626582                                                           
  884282154    626585                                                           
  877817591    626586                                                           
  884282155    626587                                                           
  882297055    626592                                                           
  860743859    626593                                                           
  884282156    626596                                                           
  877817675    626601                                                           
  884282158    626603                                                           
  877817586    626605                                                           
  884282159    626609                                                           
  882272729    626611                                                           
  877817713    626614                                                           
  884282160    626616                                                           
  884282161    626618                                                           
  877817660    626621                                                           
  884282162    626624                                                           
  860741368    626625                                                           
  884282163    626628                                                           
  884282178    626629                                                           
  884282179    626634                                                           
  884282180    626640                                                           
  877848942    626642                                                           
  876235942    626643                                                           
  884282181    626645                                                           
  884282182    626648                                                           
  877849250    626649                                                           
  876236078    626652                                                           
  884282100    626654                                                           
  877849787    626658                                                           
  884282192    626662                                                           
  877849972    626663                                                           
  884282193    626666                                                           
  876230888    626668                                                           
  876231030    626671                                                           
  884282194    626674                                                           
  877851932    626675                                                           
  884282195    626676                                                           
  877841812    626680                                                           
  884282174    626682                                                           
  884282175    626683                                                           
  884282196    626686                                                           
  877842022    626691                                                           
  884282197    626692                                                           
  877852865    626694                                                           
  877842007    626697                                                           
  884282176    626698                                                           
  884282177    626702                                                           
  877843755    626703                                                           
  877854379    626705                                                           
  877853964    626708                                                           
  877900576    626710                                                           
  884282228    626711                                                           
  884282229    626712                                                           
  867679233    626715                                                           
  867679233    626717                                                           
  877901634    626718                                                           
  884282230    626719                                                           
  884282231    626721                                                           
  877902422    626726                                                           
  884282232    626728                                                           
  884282233    626729                                                           
  884282243    626732                                                           
  884282255    626734                                                           
  884282256    626735                                                           
  884282257    626738                                                           
  884282258    626741                                                           
  884282259    626743                                                           
  884282244    626745                                                           
  884282245    626747                                                           
  884282246    626748                                                           
  884282247    626750                                                           
  884282269    626751                                                           
  884282270    626752                                                           
  884282271    626759                                                           
  877917057    626761                                                           
  884282273    626766                                                           
  877917146    626769                                                           
  877917360    626772                                                           
  884282274    626774                                                           
  884282275    626776                                                           
  877917588    626778                                                           
  877918480    626782                                                           
  884282283    626784                                                           
  877918679    626785                                                           
  884282253    626793                                                           
  884282254    626795                                                           
  877919248    626797                                                           
  884282297    626804                                                           
  877920091    626805                                                           
  877920786    626810                                                           
  884282298    626813                                                           
  884282285    626815                                                           
  877916595    626816                                                           
  877921348    626818                                                           
  884282286    626819                                                           
  877917049    626822                                                           
  884282287    626829                                                           
  877917807    626832                                                           
  884282288    626836                                                           
  884282289    626839                                                           
  884282304    626840                                                           
  884282305    626843                                                           
  878026603    626855                                                           
  884282318    626856                                                           
  884282319    626859                                                           
  884282320    626862                                                           
  878026789    626866                                                           
  884282263    626873                                                           
  878026583    626875                                                           
  884282264    626876                                                           
  681675617    626877                                                           
  878005324    626880                                                           
  878026815    626883                                                           
  884282265    626885                                                           
  878006725    626890                                                           
  878026938    626892                                                           
  884282266    626896                                                           
  878012676    626899                                                           
  884282267    626900                                                           
  878027129    626905                                                           
  884282268    626906                                                           
  884282322    626910                                                           
  878027463    626912                                                           
  884282335    626914                                                           
  878028406    626921                                                           
  884282337    626924                                                           
  878013022    626925                                                           
  884282323    626927                                                           
  878026660    626928                                                           
  878025652    626936                                                           
  884282341    626942                                                           
  878026797    626944                                                           
  884282343    626950                                                           
  884282344    626963                                                           
  878107962    626965                                                           
  884282353    626968                                                           
  878108471    626969                                                           
  884282360    626975                                                           
  884282361    626977                                                           
  878108793    626979                                                           
  878108901    626985                                                           
  884282362    626988                                                           
  884282363    626993                                                           
  878109562    626999                                                           
  878110423    627002                                                           
  884282313    627005                                                           
  884282314    627006                                                           
  878112046    627007                                                           
  884282364    627012                                                           
  878112538    627014                                                           
  878336931    627019                                                           
  884282365    627021                                                           
  878337344    627022                                                           
  878337555    627025                                                           
  884282315    627028                                                           
  878338185    627031                                                           
  879486216    627032                                                           
  884282317    627036                                                           
  879486159    627037                                                           
  884282381    627039                                                           
  879486161    627041                                                           
  884282293    627049                                                           
  879487932    627052                                                           
  884282294    627053                                                           
  884282295    627055                                                           
  884282296    627058                                                           
  884282416    627059                                                           
  878370976    627063                                                           
  878371579    627067                                                           
  884282417    627068                                                           
  884282418    627073                                                           
  878372304    627075                                                           
  878372763    627081                                                           
  878372979    627083                                                           
  872333094    627085                                                           
  884282419    627087                                                           
  872334768    627091                                                           
  878374297    627094                                                           
  878474503    627097                                                           
  872526120    627099                                                           
  884282399    627103                                                           
  884282400    627108                                                           
  878478271    627110                                                           
  878485923    627172                                                           
  815926147    627174                                                           
  878100586    627175                                                           
  878104555    627179                                                           
  860769461    627180                                                           
  878487971    627183                                                           
  884282437    627185                                                           
  884282438    627186                                                           
  878488957    627188                                                           
  878488269    627191                                                           
  884282451    627193                                                           
  879488453    627197                                                           
  878489838    627202                                                           
  658387496    627204                                                           
  878102694    627205                                                           
  884282455    627206                                                           
  860740658    627212                                                           
  860165540    627218                                                           
  884282457    627219                                                           
  884282439    627222                                                           
  878501517    627229                                                           
  878092440    627236                                                           
  860741560    627237                                                           
  884282440    627241                                                           
  884282384    627242                                                           
  860737979    627246                                                           
  860743908    627248                                                           
  884282425    627250                                                           
  884282385    627252                                                           
  860742171    627253                                                           
  884282426    627256                                                           
  884282427    627257                                                           
  878092523    627260                                                           
  879490418    627262                                                           
  878514006    627263                                                           
  878511268    627270                                                           
  860739372    627273                                                           
  884282428    627280                                                           
  683161838    627281                                                           
  683163423    627283                                                           
  878583515    627284                                                           
  884282203    627292                                                           
  878584513    627294                                                           
  884282204    627297                                                           
  884282205    627298                                                           
  683173762    627302                                                           
  884282472    627308                                                           
  878589130    627310                                                           
  878589265    627311                                                           
  882250536    627313                                                           
  878588889    627314                                                           
  884282474    627316                                                           
  878590393    627318                                                           
  860800359    627321                                                           
  878590473    627322                                                           
  884282447    627323                                                           
  878591021    627326                                                           
  878592569    627327                                                           
  860803233    627330                                                           
  884282493    627335                                                           
  878592754    627336                                                           
  878594419    627339                                                           
  878593116    627341                                                           
  884282494    627343                                                           
  878593512    627346                                                           
  884282495    627349                                                           
  878600762    627353                                                           
  878594669    627354                                                           
  884282407    627355                                                           
  878600973    627356                                                           
  860741341    627360                                                           
  884282408    627362                                                           
  878603498    627366                                                           
  884282514    627368                                                           
  882294531    627371                                                           
  878604246    627373                                                           
  860740566    627374                                                           
  878605846    627375                                                           
  884282467    627381                                                           
  878604373    627382                                                           
  878606242    627383                                                           
  860743528    627386                                                           
